graph 1d5375ef {
	ab589532ac8440779bf152395e6edc5e [x = 0.13012476412175272, y = 0.7718359975807141];
	0f9e62e5a86b45ecad6c28812b8acfac [x = 0.124777170350019, y = 0.33333333918821795];
	05f1d33d29354ffeb68ed0266fc1f644 [x = 0.6149732660922745, y = 0.32798574579318746];
	ab589532ac8440779bf152395e6edc5e -- 0f9e62e5a86b45ecad6c28812b8acfac;
	0f9e62e5a86b45ecad6c28812b8acfac -- 05f1d33d29354ffeb68ed0266fc1f644;

}